F
F
D-
F
F
F
F
F
F
F
F
F
F
F
F
F
F
F
F
F
F
F
F
F
F
F
F
F
F
F
F
F
F
F
F
F
F
F
F
F
F
F
F
F
F
F
F
F
F
F
F
F
F
F
F
F
F
F
F
F
F
F
F
D-
F
F
F
F
D
F
F
F
F
F
F
F
F
F
F
F
F
F
F
F
F
F
F
F
F
F
F
F
F
F
D-
F
F
F
F
F
F
D-
F
B
F
B
F
D+
C-
F
C
F
D-
D
D-
D+
F
C-
C-
C
C+
D
D-
C+
F
D+
D+
D+
F
B
C
B
C-
B-
F
B-
F
F
F
C-
C+
D+
F
D+
B-
C+
D+
D+
D-
D-
B+
B-
D-
F
F
D-
D+
F
B-
B+
D-
D-
F
D+
D+
D+
F
D+
C
C-
C-
D+
B-
C
B+
F
C
D-
B+
F
D+
B-
F
D-
B+
C-
F
D+
F
D+
D-
D-
D+
C
D+
D+
C
C+
D+
D-
B-
B+
D-
D-
B-
F
B+
C+
D-
A
B-
D+
A
B-
C-
F
A
F
C+
F
F
C
D-
C
C
F
C
B+
C
C+
D-
F
A
B+
B+
D-
C+
D-
B+
F
D+
B+
C
C-
D-
C
F
D-
B+
A
C+
D-
F
B-
B+
C-
F
F
B-
D+
F
B+
F
B-
F
B+
B+
B+
F
F
D+
D+
D-
D-
D-
C
D-
B+
F
D+
F
D+
F
C+
C
A
D+
D+
B+
C
F
D+
F
F
D-
D+
D+
D-
F
F
