A
C+
B+
D+
C-
C
B+
F
D-
A
A
B+
D-
D+
A
A
C
F
B-
C
F
C
C
D-
A
D-
C+
C+
D-
C
C+
C
F
F
A
D-
F
C+
D-
D-
B-
D+
B+
F
C-
C
F
F
F
C
F
B-
F
C
C+
D-
F
C+
B+
D-
B+
A
A
F
D-
D+
C+
C
D+
F
B-
F
D+
D+
F
C
B-
C
C+
C-
F
F
F
B+
C+
C
B-
C
C+
C-
A
B-
C-
D+
C-
B+
C
D-
C+
F
F
D
D-
D+
B+
C-
C-
C
D-
D+
F
C-
B-
B-
D-
B-
F
C-
D-
D-
C-
D-
C-
B-
C+
C+
D+
D+
D-
D-
C
C-
B-
C
D+
B-
C-
B+
D-
D+
D+
C+
C-
C
D+
A
C
B-
D+
D+
D-
C+
D+
C
F
D+
C-
C
C+
F
D+
D-
B+
D+
C-
D+
B-
F
F
A-
B-
B+
C
B+
D
F
C
C
F
C+
B-
C-
D+
D+
B-
D+
C+
F
F
D+
C
C
C+
D+
B
D-
F
A
D+
F
D-
F
F
F
F
F
F
F
F
D-
F
F
F
F
F
F
F
F
F
F
F
F
F
F
F
F
F
F
D-
F
F
F
D-
D-
F
F
F
D-
F
F
F
F
D-
F
F
F
F
F
F
F
F
F
F
F
F
F
F
F
F
F
D-
F
F
F
D+
F
F
F
F
F
F
F
F
F
F
F
F
D-
F
F
F
F
D-
F
F
F
F
F
F
F
F
F
F
F
F
F
F
F
D-
F
